[gd_scene load_steps=4 format=2]

[ext_resource path="res://Pickups/HealthPickup.gd" type="Script" id=1]
[ext_resource path="res://hp.png" type="Texture" id=2]

[sub_resource type="RectangleShape2D" id=1]
extents = Vector2( 17.8863, 17.3017 )

[node name="HealthPickup" type="Area2D" groups=[
"health_pickup",
]]
script = ExtResource( 1 )

[node name="Sprite" type="Sprite" parent="."]
scale = Vector2( 0.15, 0.15 )
texture = ExtResource( 2 )

[node name="CollisionShape2D" type="CollisionShape2D" parent="."]
shape = SubResource( 1 )

[node name="Timer" type="Timer" parent="."]
wait_time = 15.0
autostart = true

[connection signal="body_entered" from="." to="." method="_on_HealthPickup_body_entered"]
[connection signal="timeout" from="Timer" to="." method="_on_Timer_timeout"]
