[gd_scene load_steps=4 format=2]

[ext_resource path="res://Pickups/OxygenPickup.gd" type="Script" id=1]
[ext_resource path="res://Pickups/oxygen.png" type="Texture" id=2]

[sub_resource type="RectangleShape2D" id=1]
extents = Vector2( 18.0952, 17.4868 )

[node name="OxygenPickup" type="Area2D"]
script = ExtResource( 1 )

[node name="Sprite" type="Sprite" parent="."]
scale = Vector2( 0.15, 0.15 )
texture = ExtResource( 2 )

[node name="CollisionShape2D" type="CollisionShape2D" parent="."]
position = Vector2( 0.10511, 0 )
shape = SubResource( 1 )

[node name="Timer" type="Timer" parent="."]
wait_time = 15.0
autostart = true

[connection signal="body_entered" from="." to="." method="_on_OxygenPickup_body_entered"]
[connection signal="timeout" from="Timer" to="." method="_on_Timer_timeout"]
