[gd_scene load_steps=3 format=2]

[ext_resource path="res://Fonts/uni0553.tres" type="DynamicFont" id=1]
[ext_resource path="res://Scenes/GUI/GUI.gd" type="Script" id=3]

[node name="GUI" type="MarginContainer"]
anchor_right = 1.0
anchor_bottom = 1.0
custom_constants/margin_right = 20
custom_constants/margin_top = 20
custom_constants/margin_left = 20
custom_constants/margin_bottom = 20
script = ExtResource( 3 )
__meta__ = {
"_edit_lock_": true,
"_edit_use_anchors_": false
}

[node name="Grid" type="GridContainer" parent="."]
margin_left = 20.0
margin_top = 20.0
margin_right = 1260.0
margin_bottom = 700.0
columns = 3

[node name="Left" type="VBoxContainer" parent="Grid"]
margin_right = 160.0
margin_bottom = 680.0
rect_min_size = Vector2( 0, 680 )

[node name="Health Display" type="RichTextLabel" parent="Grid/Left"]
margin_right = 160.0
margin_bottom = 26.0
rect_min_size = Vector2( 160, 26 )
custom_fonts/normal_font = ExtResource( 1 )
text = "HEALTH [3/3]"
fit_content_height = true
__meta__ = {
"_edit_use_anchors_": false
}

[node name="Framecounter" type="RichTextLabel" parent="Grid/Left"]
visible = false
margin_top = 30.0
margin_right = 160.0
margin_bottom = 56.0
rect_min_size = Vector2( 160, 26 )
custom_fonts/normal_font = ExtResource( 1 )
text = "FRAMES [60]"
fit_content_height = true
__meta__ = {
"_edit_use_anchors_": false
}

[node name="Spacer" type="Control" parent="Grid/Left"]
margin_top = 30.0
margin_right = 160.0
margin_bottom = 30.0
size_flags_vertical = 2

[node name="Message Log" type="RichTextLabel" parent="Grid/Left"]
visible = false
margin_top = 654.0
margin_right = 164.0
margin_bottom = 680.0
rect_min_size = Vector2( 164, 26 )
custom_fonts/normal_font = ExtResource( 1 )
text = "X: 0 Y: 0"
fit_content_height = true
__meta__ = {
"_edit_use_anchors_": false
}

[node name="Spacer" type="Control" parent="Grid"]
margin_left = 164.0
margin_right = 164.0
margin_bottom = 680.0
size_flags_horizontal = 2

[node name="Right" type="VBoxContainer" parent="Grid"]
margin_left = 1240.0
margin_right = 1240.0
size_flags_vertical = 0
alignment = 2

[node name="Coordinates" type="RichTextLabel" parent="Grid/Right"]
visible = false
margin_right = 164.0
margin_bottom = 26.0
rect_min_size = Vector2( 164, 26 )
custom_fonts/normal_font = ExtResource( 1 )
text = "X: 0 Y: 0"
fit_content_height = true
__meta__ = {
"_edit_use_anchors_": false
}
